<svg width="54" height="54" viewBox="0 0 54 54" fill="none" xmlns="http://www.w3.org/2000/svg">
<g clip-path="url(#clip0)">
<path d="M0.846161 7.27954L4.06184 26.9613C4.54173 29.8884 7.24101 32.1812 10.2071 32.1812H23.6346V7.27954H0.846161Z" fill="#2488FF"/>
<path d="M38.3912 17.139C39.9229 17.139 41.3999 17.3774 42.7877 17.8179L44.5151 7.27954H23.6345V32.1811H23.8376C23.8324 32.0218 23.8288 31.8619 23.8288 31.7013C23.8288 23.6716 30.3615 17.139 38.3912 17.139Z" fill="#005ECE"/>
<path d="M4.58627 47.7299C4.58627 50.9276 7.18785 53.5291 10.3855 53.5291V41.9307C7.18774 41.9307 4.58627 44.5322 4.58627 47.7299Z" fill="#2488FF"/>
<path d="M33.1358 45.2819C32.7877 46.0261 32.5921 46.8553 32.5921 47.7297C32.5921 50.9274 35.1936 53.5289 38.3913 53.5289V46.2635C36.5391 46.2635 34.7669 45.9152 33.1358 45.2819Z" fill="#2488FF"/>
<path d="M10.3854 41.9307V53.5291C13.5831 53.5291 16.1846 50.9276 16.1846 47.7299C16.1846 44.5322 13.5831 41.9307 10.3854 41.9307Z" fill="#005ECE"/>
<path d="M38.3912 53.5289C41.5889 53.5289 44.1905 50.9274 44.1905 47.7297C44.1905 46.8553 43.9949 46.0262 43.6468 45.2819C42.0157 45.9152 40.2435 46.2635 38.3912 46.2635V53.5289Z" fill="#005ECE"/>
<path d="M49.2612 5.11298H52.7162V0.779907H45.5805L42.7878 17.8179C44.2538 18.2831 45.6202 18.9744 46.8454 19.851L49.2612 5.11298Z" fill="#2488FF"/>
<path d="M6.75278 35.431V39.7641H26.2709C25.396 38.4532 24.7281 36.9933 24.3138 35.431H6.75278Z" fill="#2488FF"/>
<path d="M38.3912 41.9305V38.1775L38.3964 32.5645L37.7202 32.1812L38.3912 32.0497V17.1389C30.3615 17.1389 23.8289 23.6716 23.8289 31.7013C23.8289 31.8619 23.8325 32.0217 23.8377 32.1812C23.8741 33.3006 24.0374 34.3885 24.3138 35.431C24.728 36.9933 25.3959 38.4532 26.2708 39.764C27.9255 42.2433 30.3196 44.1884 33.1357 45.282C34.7667 45.9154 36.539 46.2636 38.3911 46.2636L38.3912 41.9305Z" fill="#50DF44"/>
<path d="M52.9536 31.7013C52.9536 26.8214 50.5406 22.4948 46.8455 19.851C45.6202 18.9743 44.2539 18.2832 42.7878 17.8178C41.3999 17.3773 39.923 17.1389 38.3912 17.1389V32.0497L42.8172 27.6236L38.3964 31.212L38.3912 38.1775V41.9305V46.2635C40.2435 46.2635 42.0156 45.9153 43.6468 45.2819C49.0868 43.1694 52.9536 37.8787 52.9536 31.7013Z" fill="#34B528"/>
<path d="M40.4762 23.7732L32.9862 31.2631L40.4762 38.7531L43.5401 35.6891L39.1141 31.2631L43.5401 26.8371L40.4762 23.7732Z" fill="white"/>
</g>
<defs>
<clipPath id="clip0">
<rect x="0.52533" y="0.779907" width="52.749" height="52.749" fill="white"/>
</clipPath>
</defs>
</svg>
